Curso - R (Pós ADM)
…
dados_usina %>% 
  filter(str_detect(variedade,"^SP")) 

Exercício 9. Selecione os registros cujo nome da variedade termina com o número “5”?

dados_usina %>% 
  filter(str_detect(variedade,"5$"))

Exercício 10. Selecione os registros que apresentam data de plantio superior a 01/01/2013?

library(lubridate)
dados_usina %>% 
  filter(data_plantio > ymd("2013-01-01"))

## # A tibble: 794 x 17
##      Ano Gleba broca grupo_infestacao amb_prod variedade vinhaca solo 
##    <dbl> <dbl> <dbl> <chr>            <chr>    <chr>       <dbl> <chr>
##  1  2014  4248  4.67 MUITOALTO        D        RB867515    1380. LVA.8
##  2  2014  4235  4.17 MUITOALTO        D        SP83-2847   1360. LVA.8
##  3  2014  4237  3.84 MUITOALTO        D        CTC2        1148  LVA.8
##  4  2014  4234  3.08 MUITOALTO        B        RB855453     739. LR.2 
##  5  2014  4032  3.04 MUITOALTO        B        SP80-1816    676. LR.2 
##  6  2014  4482  3.01 MUITOALTO        B        RB855156     600. LVA.2
##  7  2014  4042  2.76 MUITOALTO        A        CTC14       1756. LR.1 
##  8  2014  2370  2.74 MUITOALTO        A        RB855453     294  LR.1 
##  9  2014  4193  2.49 ALTO             A        RB855453       0  LR.1 
## 10  2014  4497  2.47 ALTO             A        SP80-1816      0  LR.1 
## # ... with 784 more rows, and 9 more variables: tch <dbl>, fazenda <chr>,
## #   data_plantio <dttm>, data_avaliacao <dttm>, chuva <dbl>, tmed <dbl>,
## #   ur <dbl>, etp <dbl>, rad <dbl>
…
